<?xml version="1.0" encoding="UTF-8" standalone="no"?>
<svg
   xmlns:dc="http://purl.org/dc/elements/1.1/"
   xmlns:cc="http://creativecommons.org/ns#"
   xmlns:rdf="http://www.w3.org/1999/02/22-rdf-syntax-ns#"
   xmlns:svg="http://www.w3.org/2000/svg"
   xmlns="http://www.w3.org/2000/svg"
   xmlns:sodipodi="http://sodipodi.sourceforge.net/DTD/sodipodi-0.dtd"
   xmlns:inkscape="http://www.inkscape.org/namespaces/inkscape"
   version="1.1"
   id="svg28"
   xml:space="preserve"
   width="82.664001"
   height="82.663063"
   viewBox="0 0 82.664 82.663064"
   sodipodi:docname="305.svg"
   inkscape:version="1.0.1 (3bc2e813f5, 2020-09-07)"><metadata
     id="metadata34"><rdf:RDF><cc:Work
         rdf:about=""><dc:format>image/svg+xml</dc:format><dc:type
           rdf:resource="http://purl.org/dc/dcmitype/StillImage" /><dc:title></dc:title></cc:Work></rdf:RDF></metadata><defs
     id="defs32"><clipPath
       clipPathUnits="userSpaceOnUse"
       id="clipPath44"><path
         d="M 0,2629.96 H 2000 V 0 H 0 Z"
         id="path42" /></clipPath><clipPath
       clipPathUnits="userSpaceOnUse"
       id="clipPath50708"><path
         d="M 0,2629.96 H 2000 V 0 H 0 Z"
         id="path50706" /></clipPath><clipPath
       clipPathUnits="userSpaceOnUse"
       id="clipPath50720"><path
         d="m 410.739,1847.95 h 25.275 v -25.27 h -25.275 z"
         id="path50718" /></clipPath><clipPath
       clipPathUnits="userSpaceOnUse"
       id="clipPath50776"><path
         d="m 924.183,1839.97 h 21.811 v -21.89 h -21.811 z"
         id="path50774" /></clipPath><clipPath
       clipPathUnits="userSpaceOnUse"
       id="clipPath50824"><path
         d="m 1052.18,1839.97 h 21.81 v -21.89 h -21.81 z"
         id="path50822" /></clipPath><clipPath
       clipPathUnits="userSpaceOnUse"
       id="clipPath50852"><path
         d="m 668.739,1843.95 h 21.159 v -7.09 h -21.159 z"
         id="path50850" /></clipPath><clipPath
       clipPathUnits="userSpaceOnUse"
       id="clipPath50872"><path
         d="m 670.098,1839.85 h 22.289 v -22.29 h -22.289 z"
         id="path50870" /></clipPath><clipPath
       clipPathUnits="userSpaceOnUse"
       id="clipPath50916"><path
         d="m 538.739,1847.95 h 25.275 v -25.27 h -25.275 z"
         id="path50914" /></clipPath><clipPath
       clipPathUnits="userSpaceOnUse"
       id="clipPath50972"><path
         d="m 530,1710.46 h 40 v -23.66 h -40 z"
         id="path50970" /></clipPath><clipPath
       clipPathUnits="userSpaceOnUse"
       id="clipPath51000"><path
         d="m 1560.01,1714.48 h 27.24 v -23.53 h -27.24 z"
         id="path50998" /></clipPath><clipPath
       clipPathUnits="userSpaceOnUse"
       id="clipPath51048"><path
         d="M 648.391,1711.63 H 708 v -35.52 h -59.609 z"
         id="path51046" /></clipPath><clipPath
       clipPathUnits="userSpaceOnUse"
       id="clipPath51072"><path
         d="M 411.339,1724.96 H 442 v -30.66 h -30.661 z"
         id="path51070" /></clipPath><clipPath
       clipPathUnits="userSpaceOnUse"
       id="clipPath51096"><path
         d="m 904,1720.43 h 55.339 v -44.47 H 904 Z"
         id="path51094" /></clipPath><clipPath
       clipPathUnits="userSpaceOnUse"
       id="clipPath51112"><path
         d="m 936.01,1727.95 h 4 v -4 h -4 z"
         id="path51110" /></clipPath><clipPath
       clipPathUnits="userSpaceOnUse"
       id="clipPath51128"><path
         d="m 948.012,1715.95 h 4 v -4 h -4 z"
         id="path51126" /></clipPath><clipPath
       clipPathUnits="userSpaceOnUse"
       id="clipPath51144"><path
         d="m 918.082,1709.97 h 4 v -4 h -4 z"
         id="path51142" /></clipPath><clipPath
       clipPathUnits="userSpaceOnUse"
       id="clipPath51180"><path
         d="m 798.739,1843.95 h 21.159 v -7.09 h -21.159 z"
         id="path51178" /></clipPath><clipPath
       clipPathUnits="userSpaceOnUse"
       id="clipPath51220"><path
         d="M 1165.02,1723.22 H 1212 v -47.26 h -46.98 z"
         id="path51218" /></clipPath><clipPath
       clipPathUnits="userSpaceOnUse"
       id="clipPath51244"><path
         d="M 1044.68,1718.71 H 1076 v -32.75 h -31.32 z"
         id="path51242" /></clipPath><clipPath
       clipPathUnits="userSpaceOnUse"
       id="clipPath51268"><path
         d="m 1180.18,1842.97 h 21.81 v -21.89 h -21.81 z"
         id="path51266" /></clipPath><clipPath
       clipPathUnits="userSpaceOnUse"
       id="clipPath51324"><path
         d="m 1308.18,1844.97 h 21.81 v -21.89 h -21.81 z"
         id="path51322" /></clipPath><clipPath
       clipPathUnits="userSpaceOnUse"
       id="clipPath51380"><path
         d="m 1436.18,1832.97 h 21.81 v -12.01 h -21.81 z"
         id="path51378" /></clipPath><clipPath
       clipPathUnits="userSpaceOnUse"
       id="clipPath51420"><path
         d="m 1288,1710.97 h 25.08 v -16.95 H 1288 Z"
         id="path51418" /></clipPath><clipPath
       clipPathUnits="userSpaceOnUse"
       id="clipPath51448"><path
         d="M 1559.44,1854.96 H 1592 v -26 h -32.56 z"
         id="path51446" /></clipPath><clipPath
       clipPathUnits="userSpaceOnUse"
       id="clipPath51484"><path
         d="m 392,1581.96 h 32 v -22 h -32 z"
         id="path51482" /></clipPath><clipPath
       clipPathUnits="userSpaceOnUse"
       id="clipPath51500"><path
         d="M 411.57,1595.96 H 452 v -31.56 h -40.43 z"
         id="path51498" /></clipPath><clipPath
       clipPathUnits="userSpaceOnUse"
       id="clipPath51528"><path
         d="m 540.1,1581.9 h 11.896 v -11.95 H 540.1 Z"
         id="path51526" /></clipPath><clipPath
       clipPathUnits="userSpaceOnUse"
       id="clipPath51544"><path
         d="M 536.01,1569.96 H 559 v -16 h -22.99 z"
         id="path51542" /></clipPath><clipPath
       clipPathUnits="userSpaceOnUse"
       id="clipPath51560"><path
         d="M 549.259,1581.96 H 580 v -25.35 h -30.741 z"
         id="path51558" /></clipPath><clipPath
       clipPathUnits="userSpaceOnUse"
       id="clipPath51612"><path
         d="m 653.561,1591.96 h 18.313 v -15.88 h -18.313 z"
         id="path51610" /></clipPath><clipPath
       clipPathUnits="userSpaceOnUse"
       id="clipPath51628"><path
         d="m 654,1577.96 h 26.967 v -20 H 654 Z"
         id="path51626" /></clipPath><clipPath
       clipPathUnits="userSpaceOnUse"
       id="clipPath51644"><path
         d="M 668.759,1591.96 H 708 v -30.35 h -39.241 z"
         id="path51642" /></clipPath><clipPath
       clipPathUnits="userSpaceOnUse"
       id="clipPath51672"><path
         d="m 782,1575.96 h 26.967 v -20 H 782 Z"
         id="path51670" /></clipPath><clipPath
       clipPathUnits="userSpaceOnUse"
       id="clipPath51688"><path
         d="M 796.759,1589.96 H 836 v -30.35 h -39.241 z"
         id="path51686" /></clipPath><clipPath
       clipPathUnits="userSpaceOnUse"
       id="clipPath51708"><path
         d="m 783.115,1589.96 h 20.808 v -15.59 h -20.808 z"
         id="path51706" /></clipPath><clipPath
       clipPathUnits="userSpaceOnUse"
       id="clipPath51736"><path
         d="m 1032,1587.96 h 18.61 v -16 H 1032 Z"
         id="path51734" /></clipPath><clipPath
       clipPathUnits="userSpaceOnUse"
       id="clipPath51752"><path
         d="M 1051.57,1601.96 H 1092 v -30 h -40.43 z"
         id="path51750" /></clipPath><clipPath
       clipPathUnits="userSpaceOnUse"
       id="clipPath51792"><path
         d="m 1544,1593.96 h 32 v -22 h -32 z"
         id="path51790" /></clipPath><clipPath
       clipPathUnits="userSpaceOnUse"
       id="clipPath51808"><path
         d="M 1563.57,1607.96 H 1604 v -31.56 h -40.43 z"
         id="path51806" /></clipPath><clipPath
       clipPathUnits="userSpaceOnUse"
       id="clipPath51848"><path
         d="m 392,1465.96 h 32 v -22 h -32 z"
         id="path51846" /></clipPath><clipPath
       clipPathUnits="userSpaceOnUse"
       id="clipPath51864"><path
         d="M 411.57,1479.96 H 452 v -31.56 h -40.43 z"
         id="path51862" /></clipPath><clipPath
       clipPathUnits="userSpaceOnUse"
       id="clipPath51920"><path
         d="m 651,1465.96 h 32 v -22 h -32 z"
         id="path51918" /></clipPath><clipPath
       clipPathUnits="userSpaceOnUse"
       id="clipPath51936"><path
         d="M 670.57,1479.96 H 711 v -31.56 h -40.43 z"
         id="path51934" /></clipPath><clipPath
       clipPathUnits="userSpaceOnUse"
       id="clipPath51976"><path
         d="m 1032,1462.96 h 32 v -22 h -32 z"
         id="path51974" /></clipPath><clipPath
       clipPathUnits="userSpaceOnUse"
       id="clipPath51992"><path
         d="M 1051.57,1476.96 H 1092 v -31.56 h -40.43 z"
         id="path51990" /></clipPath><clipPath
       clipPathUnits="userSpaceOnUse"
       id="clipPath52020"><path
         d="m 777,1465.96 h 32 v -22 h -32 z"
         id="path52018" /></clipPath><clipPath
       clipPathUnits="userSpaceOnUse"
       id="clipPath52036"><path
         d="M 796.57,1479.96 H 837 v -31.56 h -40.43 z"
         id="path52034" /></clipPath><clipPath
       clipPathUnits="userSpaceOnUse"
       id="clipPath52092"><path
         d="m 903,1465.96 h 32 v -22 h -32 z"
         id="path52090" /></clipPath><clipPath
       clipPathUnits="userSpaceOnUse"
       id="clipPath52108"><path
         d="M 922.57,1479.96 H 963 v -31.56 h -40.43 z"
         id="path52106" /></clipPath><clipPath
       clipPathUnits="userSpaceOnUse"
       id="clipPath52164"><path
         d="m 1160,1465.96 h 32 v -22 h -32 z"
         id="path52162" /></clipPath><clipPath
       clipPathUnits="userSpaceOnUse"
       id="clipPath52180"><path
         d="M 1179.57,1479.96 H 1220 v -31.56 h -40.43 z"
         id="path52178" /></clipPath><clipPath
       clipPathUnits="userSpaceOnUse"
       id="clipPath52224"><path
         d="m 1288,1462.96 h 32 v -22 h -32 z"
         id="path52222" /></clipPath><clipPath
       clipPathUnits="userSpaceOnUse"
       id="clipPath52240"><path
         d="M 1307.57,1476.96 H 1348 v -31.56 h -40.43 z"
         id="path52238" /></clipPath><clipPath
       clipPathUnits="userSpaceOnUse"
       id="clipPath52280"><path
         d="M 1185.36,1604.96 H 1220 v -27.5 h -34.64 z"
         id="path52278" /></clipPath><clipPath
       clipPathUnits="userSpaceOnUse"
       id="clipPath52296"><path
         d="m 1160,1580.96 h 12.6 v -12 H 1160 Z"
         id="path52294" /></clipPath><clipPath
       clipPathUnits="userSpaceOnUse"
       id="clipPath52312"><path
         d="M 1174.76,1594.96 H 1214 v -26 h -39.24 z"
         id="path52310" /></clipPath><clipPath
       clipPathUnits="userSpaceOnUse"
       id="clipPath52352"><path
         d="m 520,1337.96 h 32 v -22 h -32 z"
         id="path52350" /></clipPath><clipPath
       clipPathUnits="userSpaceOnUse"
       id="clipPath52368"><path
         d="M 539.57,1351.96 H 580 v -31.56 h -40.43 z"
         id="path52366" /></clipPath><clipPath
       clipPathUnits="userSpaceOnUse"
       id="clipPath52452"><path
         d="m 1302.99,1591.64 h 16.16 v -14.72 h -16.16 z"
         id="path52450" /></clipPath><clipPath
       clipPathUnits="userSpaceOnUse"
       id="clipPath52468"><path
         d="m 1304.01,1579.96 h 13.2 v -12 h -13.2 z"
         id="path52466" /></clipPath><clipPath
       clipPathUnits="userSpaceOnUse"
       id="clipPath52484"><path
         d="M 1317.26,1591.96 H 1348 v -24 h -30.74 z"
         id="path52482" /></clipPath><clipPath
       clipPathUnits="userSpaceOnUse"
       id="clipPath52552"><path
         d="m 1422.02,1594.88 h 17.73 v -15.5 h -17.73 z"
         id="path52550" /></clipPath><clipPath
       clipPathUnits="userSpaceOnUse"
       id="clipPath52568"><path
         d="m 1420,1580.96 h 11.52 v -10 H 1420 Z"
         id="path52566" /></clipPath><clipPath
       clipPathUnits="userSpaceOnUse"
       id="clipPath52584"><path
         d="M 1434.76,1594.96 H 1474 v -24 h -39.24 z"
         id="path52582" /></clipPath><clipPath
       clipPathUnits="userSpaceOnUse"
       id="clipPath52628"><path
         d="m 648,1337.96 h 32 v -22 h -32 z"
         id="path52626" /></clipPath><clipPath
       clipPathUnits="userSpaceOnUse"
       id="clipPath52644"><path
         d="M 667.57,1351.96 H 708 v -31.56 h -40.43 z"
         id="path52642" /></clipPath><clipPath
       clipPathUnits="userSpaceOnUse"
       id="clipPath52732"><path
         d="m 904,1335.96 h 32 v -22 h -32 z"
         id="path52730" /></clipPath><clipPath
       clipPathUnits="userSpaceOnUse"
       id="clipPath52748"><path
         d="M 923.57,1349.96 H 964 v -31.56 h -40.43 z"
         id="path52746" /></clipPath><clipPath
       clipPathUnits="userSpaceOnUse"
       id="clipPath52784"><path
         d="M 1303.01,1325.96 H 1326 v -16 h -22.99 z"
         id="path52782" /></clipPath><clipPath
       clipPathUnits="userSpaceOnUse"
       id="clipPath52800"><path
         d="M 1316.26,1337.96 H 1347 v -25.35 h -30.74 z"
         id="path52798" /></clipPath><clipPath
       clipPathUnits="userSpaceOnUse"
       id="clipPath52820"><path
         d="m 1301.97,1337.64 h 16.18 v -14.74 h -16.18 z"
         id="path52818" /></clipPath><clipPath
       clipPathUnits="userSpaceOnUse"
       id="clipPath52884"><path
         d="M 406.01,1197.96 H 429 v -16 h -22.99 z"
         id="path52882" /></clipPath><clipPath
       clipPathUnits="userSpaceOnUse"
       id="clipPath52900"><path
         d="M 419.259,1209.96 H 450 v -25.35 h -30.741 z"
         id="path52898" /></clipPath><clipPath
       clipPathUnits="userSpaceOnUse"
       id="clipPath52920"><path
         d="m 404.975,1209.64 h 16.176 v -14.74 h -16.176 z"
         id="path52918" /></clipPath><clipPath
       clipPathUnits="userSpaceOnUse"
       id="clipPath52984"><path
         d="M 533.01,1197.96 H 556 v -16 h -22.99 z"
         id="path52982" /></clipPath><clipPath
       clipPathUnits="userSpaceOnUse"
       id="clipPath53000"><path
         d="M 546.259,1209.96 H 577 v -25.35 h -30.741 z"
         id="path52998" /></clipPath><clipPath
       clipPathUnits="userSpaceOnUse"
       id="clipPath53020"><path
         d="m 531.975,1209.64 h 16.176 v -14.74 h -16.176 z"
         id="path53018" /></clipPath><clipPath
       clipPathUnits="userSpaceOnUse"
       id="clipPath53100"><path
         d="M 662.01,1197.96 H 685 v -16 h -22.99 z"
         id="path53098" /></clipPath><clipPath
       clipPathUnits="userSpaceOnUse"
       id="clipPath53116"><path
         d="M 675.259,1209.96 H 706 v -25.35 h -30.741 z"
         id="path53114" /></clipPath><clipPath
       clipPathUnits="userSpaceOnUse"
       id="clipPath53136"><path
         d="m 660.975,1209.64 h 16.176 v -14.74 h -16.176 z"
         id="path53134" /></clipPath><clipPath
       clipPathUnits="userSpaceOnUse"
       id="clipPath53188"><path
         d="M 918.01,1197.96 H 941 v -16 h -22.99 z"
         id="path53186" /></clipPath><clipPath
       clipPathUnits="userSpaceOnUse"
       id="clipPath53204"><path
         d="M 931.259,1209.96 H 962 v -25.35 h -30.741 z"
         id="path53202" /></clipPath><clipPath
       clipPathUnits="userSpaceOnUse"
       id="clipPath53224"><path
         d="m 916.975,1209.64 h 16.176 v -14.74 h -16.176 z"
         id="path53222" /></clipPath><clipPath
       clipPathUnits="userSpaceOnUse"
       id="clipPath53312"><path
         d="M 1046.01,1197.96 H 1069 v -16 h -22.99 z"
         id="path53310" /></clipPath><clipPath
       clipPathUnits="userSpaceOnUse"
       id="clipPath53328"><path
         d="M 1059.26,1209.96 H 1090 v -25.35 h -30.74 z"
         id="path53326" /></clipPath><clipPath
       clipPathUnits="userSpaceOnUse"
       id="clipPath53348"><path
         d="m 1044.97,1209.64 h 16.18 v -14.74 h -16.18 z"
         id="path53346" /></clipPath><clipPath
       clipPathUnits="userSpaceOnUse"
       id="clipPath53436"><path
         d="M 1174.01,1197.96 H 1197 v -16 h -22.99 z"
         id="path53434" /></clipPath><clipPath
       clipPathUnits="userSpaceOnUse"
       id="clipPath53452"><path
         d="M 1187.26,1209.96 H 1218 v -25.35 h -30.74 z"
         id="path53450" /></clipPath><clipPath
       clipPathUnits="userSpaceOnUse"
       id="clipPath53472"><path
         d="m 1172.97,1209.64 h 16.18 v -14.74 h -16.18 z"
         id="path53470" /></clipPath><clipPath
       clipPathUnits="userSpaceOnUse"
       id="clipPath53560"><path
         d="m 1427,711.96 h 28 v -32 h -28 z"
         id="path53558" /></clipPath><clipPath
       clipPathUnits="userSpaceOnUse"
       id="clipPath53576"><path
         d="M 1450.13,685.959 H 1465 v -5.999 h -14.87 z"
         id="path53574" /></clipPath><clipPath
       clipPathUnits="userSpaceOnUse"
       id="clipPath53600"><path
         d="m 914,697.193 h 39.31 V 651.96 H 914 Z"
         id="path53598" /></clipPath><clipPath
       clipPathUnits="userSpaceOnUse"
       id="clipPath53628"><path
         d="m 1162,676.626 h 19.66 V 651.961 H 1162 Z"
         id="path53626" /></clipPath><clipPath
       clipPathUnits="userSpaceOnUse"
       id="clipPath53652"><path
         d="m 1198,676.626 h 19.66 V 651.961 H 1198 Z"
         id="path53650" /></clipPath><clipPath
       clipPathUnits="userSpaceOnUse"
       id="clipPath53668"><path
         d="m 1180,706.626 h 19.66 V 681.961 H 1180 Z"
         id="path53666" /></clipPath><clipPath
       clipPathUnits="userSpaceOnUse"
       id="clipPath53712"><path
         d="m 1288,691.962 h 32 V 669.96 h -32 z"
         id="path53710" /></clipPath><clipPath
       clipPathUnits="userSpaceOnUse"
       id="clipPath53728"><path
         d="M 1307.57,705.96 H 1348 v -31.562 h -40.43 z"
         id="path53726" /></clipPath><clipPath
       clipPathUnits="userSpaceOnUse"
       id="clipPath53748"><path
         d="m 1312,667.111 h 11.97 V 653.95 H 1312 Z"
         id="path53746" /></clipPath><clipPath
       clipPathUnits="userSpaceOnUse"
       id="clipPath53780"><path
         d="m 1300.06,1215.89 h 12.93 v -11.93 h -12.93 z"
         id="path53778" /></clipPath><clipPath
       clipPathUnits="userSpaceOnUse"
       id="clipPath53796"><path
         d="m 1297,1204.42 h 22 v -16.46 h -22 z"
         id="path53794" /></clipPath><clipPath
       clipPathUnits="userSpaceOnUse"
       id="clipPath53812"><path
         d="M 1309.89,1215.96 H 1343 v -23.97 h -33.11 z"
         id="path53810" /></clipPath><clipPath
       clipPathUnits="userSpaceOnUse"
       id="clipPath53860"><path
         d="m 404.058,1087.89 h 12.928 v -11.93 h -12.928 z"
         id="path53858" /></clipPath><clipPath
       clipPathUnits="userSpaceOnUse"
       id="clipPath53876"><path
         d="m 401,1076.42 h 22 v -16.46 h -22 z"
         id="path53874" /></clipPath><clipPath
       clipPathUnits="userSpaceOnUse"
       id="clipPath53892"><path
         d="m 413.891,1087.96 h 33.106 v -23.97 h -33.106 z"
         id="path53890" /></clipPath><clipPath
       clipPathUnits="userSpaceOnUse"
       id="clipPath53940"><path
         d="m 533.058,1087.89 h 12.928 v -11.93 h -12.928 z"
         id="path53938" /></clipPath><clipPath
       clipPathUnits="userSpaceOnUse"
       id="clipPath53956"><path
         d="m 530,1076.42 h 22 v -16.46 h -22 z"
         id="path53954" /></clipPath><clipPath
       clipPathUnits="userSpaceOnUse"
       id="clipPath53972"><path
         d="m 542.891,1087.96 h 33.106 v -23.97 h -33.106 z"
         id="path53970" /></clipPath><clipPath
       clipPathUnits="userSpaceOnUse"
       id="clipPath54036"><path
         d="m 660.058,1085.89 h 12.928 v -11.93 h -12.928 z"
         id="path54034" /></clipPath><clipPath
       clipPathUnits="userSpaceOnUse"
       id="clipPath54052"><path
         d="m 657,1074.42 h 22 v -16.46 h -22 z"
         id="path54050" /></clipPath><clipPath
       clipPathUnits="userSpaceOnUse"
       id="clipPath54068"><path
         d="m 669.891,1085.96 h 33.106 v -23.97 h -33.106 z"
         id="path54066" /></clipPath><clipPath
       clipPathUnits="userSpaceOnUse"
       id="clipPath54104"><path
         d="m 790.058,1087.89 h 12.928 v -11.93 h -12.928 z"
         id="path54102" /></clipPath><clipPath
       clipPathUnits="userSpaceOnUse"
       id="clipPath54120"><path
         d="m 787,1076.42 h 22 v -16.46 h -22 z"
         id="path54118" /></clipPath><clipPath
       clipPathUnits="userSpaceOnUse"
       id="clipPath54136"><path
         d="m 799.891,1087.96 h 33.106 v -23.97 h -33.106 z"
         id="path54134" /></clipPath><clipPath
       clipPathUnits="userSpaceOnUse"
       id="clipPath54188"><path
         d="m 1171.06,1087.89 h 12.93 v -11.93 h -12.93 z"
         id="path54186" /></clipPath><clipPath
       clipPathUnits="userSpaceOnUse"
       id="clipPath54204"><path
         d="m 1168,1076.42 h 22 v -16.46 h -22 z"
         id="path54202" /></clipPath><clipPath
       clipPathUnits="userSpaceOnUse"
       id="clipPath54220"><path
         d="M 1180.89,1087.96 H 1214 v -23.97 h -33.11 z"
         id="path54218" /></clipPath><clipPath
       clipPathUnits="userSpaceOnUse"
       id="clipPath54296"><path
         d="m 1428.06,1087.89 h 12.93 v -11.93 h -12.93 z"
         id="path54294" /></clipPath><clipPath
       clipPathUnits="userSpaceOnUse"
       id="clipPath54312"><path
         d="m 1425,1076.42 h 22 v -16.46 h -22 z"
         id="path54310" /></clipPath><clipPath
       clipPathUnits="userSpaceOnUse"
       id="clipPath54328"><path
         d="M 1437.89,1087.96 H 1471 v -23.97 h -33.11 z"
         id="path54326" /></clipPath><clipPath
       clipPathUnits="userSpaceOnUse"
       id="clipPath54396"><path
         d="m 1160,1337.96 h 32 v -22 h -32 z"
         id="path54394" /></clipPath><clipPath
       clipPathUnits="userSpaceOnUse"
       id="clipPath54412"><path
         d="M 1179.57,1351.96 H 1220 v -31.56 h -40.43 z"
         id="path54410" /></clipPath><clipPath
       clipPathUnits="userSpaceOnUse"
       id="clipPath54476"><path
         d="m 1553,1076.42 h 22 v -16.46 h -22 z"
         id="path54474" /></clipPath><clipPath
       clipPathUnits="userSpaceOnUse"
       id="clipPath54492"><path
         d="M 1565.89,1087.96 H 1599 v -23.97 h -33.11 z"
         id="path54490" /></clipPath><clipPath
       clipPathUnits="userSpaceOnUse"
       id="clipPath54512"><path
         d="m 1554.3,1088.86 h 14.69 v -12.9 h -14.69 z"
         id="path54510" /></clipPath><clipPath
       clipPathUnits="userSpaceOnUse"
       id="clipPath54556"><path
         d="m 657,948.418 h 22 V 931.96 h -22 z"
         id="path54554" /></clipPath><clipPath
       clipPathUnits="userSpaceOnUse"
       id="clipPath54572"><path
         d="m 669.891,959.957 h 33.106 v -23.97 h -33.106 z"
         id="path54570" /></clipPath><clipPath
       clipPathUnits="userSpaceOnUse"
       id="clipPath54592"><path
         d="m 658.303,960.86 h 14.684 v -12.903 h -14.684 z"
         id="path54590" /></clipPath><clipPath
       clipPathUnits="userSpaceOnUse"
       id="clipPath54636"><path
         d="m 785,948.418 h 22 V 931.96 h -22 z"
         id="path54634" /></clipPath><clipPath
       clipPathUnits="userSpaceOnUse"
       id="clipPath54652"><path
         d="m 797.891,959.957 h 33.106 v -23.97 h -33.106 z"
         id="path54650" /></clipPath><clipPath
       clipPathUnits="userSpaceOnUse"
       id="clipPath54672"><path
         d="m 786.303,960.86 h 14.684 v -12.903 h -14.684 z"
         id="path54670" /></clipPath><clipPath
       clipPathUnits="userSpaceOnUse"
       id="clipPath54732"><path
         d="m 913,946.418 h 22 V 929.96 h -22 z"
         id="path54730" /></clipPath><clipPath
       clipPathUnits="userSpaceOnUse"
       id="clipPath54748"><path
         d="m 925.891,957.957 h 33.106 v -23.97 h -33.106 z"
         id="path54746" /></clipPath><clipPath
       clipPathUnits="userSpaceOnUse"
       id="clipPath54768"><path
         d="m 914.303,958.86 h 14.684 v -12.903 h -14.684 z"
         id="path54766" /></clipPath><clipPath
       clipPathUnits="userSpaceOnUse"
       id="clipPath54800"><path
         d="m 1042,948.418 h 22 V 931.96 h -22 z"
         id="path54798" /></clipPath><clipPath
       clipPathUnits="userSpaceOnUse"
       id="clipPath54816"><path
         d="M 1054.89,959.957 H 1088 v -23.97 h -33.11 z"
         id="path54814" /></clipPath><clipPath
       clipPathUnits="userSpaceOnUse"
       id="clipPath54836"><path
         d="m 1043.3,960.86 h 14.69 v -12.903 h -14.69 z"
         id="path54834" /></clipPath><clipPath
       clipPathUnits="userSpaceOnUse"
       id="clipPath54888"><path
         d="m 1424,948.418 h 22 V 931.96 h -22 z"
         id="path54886" /></clipPath><clipPath
       clipPathUnits="userSpaceOnUse"
       id="clipPath54904"><path
         d="M 1436.89,959.957 H 1470 v -23.97 h -33.11 z"
         id="path54902" /></clipPath><clipPath
       clipPathUnits="userSpaceOnUse"
       id="clipPath54924"><path
         d="m 1425.3,960.86 h 14.69 v -12.903 h -14.69 z"
         id="path54922" /></clipPath><clipPath
       clipPathUnits="userSpaceOnUse"
       id="clipPath55016"><path
         d="m 401,818.418 h 22 V 801.96 h -22 z"
         id="path55014" /></clipPath><clipPath
       clipPathUnits="userSpaceOnUse"
       id="clipPath55032"><path
         d="m 413.891,829.957 h 33.106 v -23.97 h -33.106 z"
         id="path55030" /></clipPath><clipPath
       clipPathUnits="userSpaceOnUse"
       id="clipPath55052"><path
         d="m 402.303,830.86 h 14.684 v -12.903 h -14.684 z"
         id="path55050" /></clipPath><clipPath
       clipPathUnits="userSpaceOnUse"
       id="clipPath55120"><path
         d="M 569.515,802.96 H 580 v -10.485 h -10.485 z"
         id="path55118" /></clipPath><clipPath
       clipPathUnits="userSpaceOnUse"
       id="clipPath55136"><path
         d="M 543.689,802.96 H 558 v -14.311 h -14.311 z"
         id="path55134" /></clipPath><clipPath
       clipPathUnits="userSpaceOnUse"
       id="clipPath55152"><path
         d="M 562.601,826.96 H 576 v -13.399 h -13.399 z"
         id="path55150" /></clipPath><clipPath
       clipPathUnits="userSpaceOnUse"
       id="clipPath55168"><path
         d="M 544.653,834.96 H 562 v -17.348 h -17.347 z"
         id="path55166" /></clipPath><clipPath
       clipPathUnits="userSpaceOnUse"
       id="clipPath55204"><path
         d="M 795.877,825.96 H 819 v -19.913 h -23.123 z"
         id="path55202" /></clipPath><clipPath
       clipPathUnits="userSpaceOnUse"
       id="clipPath55260"><path
         d="M 918.181,821.524 H 946 V 805.96 h -27.819 z"
         id="path55258" /></clipPath><clipPath
       clipPathUnits="userSpaceOnUse"
       id="clipPath55304"><path
         d="m 1047.59,820.764 h 16.11 v -11.589 h -16.11 z"
         id="path55302" /></clipPath><clipPath
       clipPathUnits="userSpaceOnUse"
       id="clipPath55320"><path
         d="m 1042,809.558 h 25.38 V 791.966 H 1042 Z"
         id="path55318" /></clipPath><clipPath
       clipPathUnits="userSpaceOnUse"
       id="clipPath55336"><path
         d="M 1059.99,820.764 H 1090 v -26.083 h -30.01 z"
         id="path55334" /></clipPath><clipPath
       clipPathUnits="userSpaceOnUse"
       id="clipPath55392"><path
         d="m 1164,813.558 h 25.38 V 795.966 H 1164 Z"
         id="path55390" /></clipPath><clipPath
       clipPathUnits="userSpaceOnUse"
       id="clipPath55408"><path
         d="M 1181.99,824.764 H 1212 v -26.083 h -30.01 z"
         id="path55406" /></clipPath><clipPath
       clipPathUnits="userSpaceOnUse"
       id="clipPath55428"><path
         d="m 1165.99,824.764 h 18 v -12.348 h -18 z"
         id="path55426" /></clipPath><clipPath
       clipPathUnits="userSpaceOnUse"
       id="clipPath55468"><path
         d="m 1292,813.558 h 25.38 V 795.966 H 1292 Z"
         id="path55466" /></clipPath><clipPath
       clipPathUnits="userSpaceOnUse"
       id="clipPath55484"><path
         d="M 1309.99,824.764 H 1340 v -26.083 h -30.01 z"
         id="path55482" /></clipPath><clipPath
       clipPathUnits="userSpaceOnUse"
       id="clipPath55504"><path
         d="m 1294.06,824.764 h 17.96 v -12.303 h -17.96 z"
         id="path55502" /></clipPath><clipPath
       clipPathUnits="userSpaceOnUse"
       id="clipPath55544"><path
         d="m 661,711.96 h 41 v -56 h -41 z"
         id="path55542" /></clipPath><clipPath
       clipPathUnits="userSpaceOnUse"
       id="clipPath55576"><path
         d="m 776,707.966 h 30 V 677.96 h -30 z"
         id="path55574" /></clipPath><clipPath
       clipPathUnits="userSpaceOnUse"
       id="clipPath55592"><path
         d="m 806,707.966 h 30 V 677.96 h -30 z"
         id="path55590" /></clipPath><clipPath
       clipPathUnits="userSpaceOnUse"
       id="clipPath55640"><path
         d="m 1565,711.96 h 26 v -26.999 h -26 z"
         id="path55638" /></clipPath><clipPath
       clipPathUnits="userSpaceOnUse"
       id="clipPath55668"><path
         d="m 1042,697.193 h 39.31 V 651.96 H 1042 Z"
         id="path55666" /></clipPath><clipPath
       clipPathUnits="userSpaceOnUse"
       id="clipPath55716"><path
         d="m 1552,821.8 h 52.01 V 809.961 H 1552 Z"
         id="path55714" /></clipPath><clipPath
       clipPathUnits="userSpaceOnUse"
       id="clipPath55752"><path
         d="m 420,689.96 h 5 v -5 h -5 z"
         id="path55750" /></clipPath><clipPath
       clipPathUnits="userSpaceOnUse"
       id="clipPath55780"><path
         d="m 421,711.96 h 4.231 V 693.961 H 421 Z"
         id="path55778" /></clipPath><clipPath
       clipPathUnits="userSpaceOnUse"
       id="clipPath55796"><path
         d="m 427.234,681.96 h 16.189 v -9.533 h -16.189 z"
         id="path55794" /></clipPath><clipPath
       clipPathUnits="userSpaceOnUse"
       id="clipPath55812"><path
         d="m 399.02,682.023 h 16.192 v -9.801 H 399.02 Z"
         id="path55810" /></clipPath><clipPath
       clipPathUnits="userSpaceOnUse"
       id="clipPath55856"><path
         d="M 540.332,708.96 H 559 v -56 h -18.668 z"
         id="path55854" /></clipPath><clipPath
       clipPathUnits="userSpaceOnUse"
       id="clipPath55908"><path
         d="m 1416,1461.96 h 32 v -22 h -32 z"
         id="path55906" /></clipPath><clipPath
       clipPathUnits="userSpaceOnUse"
       id="clipPath55924"><path
         d="M 1435.57,1475.96 H 1476 v -31.56 h -40.43 z"
         id="path55922" /></clipPath><clipPath
       clipPathUnits="userSpaceOnUse"
       id="clipPath55956"><path
         d="m 1032,1335.96 h 32 v -22 h -32 z"
         id="path55954" /></clipPath><clipPath
       clipPathUnits="userSpaceOnUse"
       id="clipPath55972"><path
         d="M 1051.57,1349.96 H 1092 v -31.56 h -40.43 z"
         id="path55970" /></clipPath><clipPath
       clipPathUnits="userSpaceOnUse"
       id="clipPath56012"><path
         d="M 790.01,1197.96 H 813 v -16 h -22.99 z"
         id="path56010" /></clipPath><clipPath
       clipPathUnits="userSpaceOnUse"
       id="clipPath56028"><path
         d="M 803.259,1209.96 H 834 v -25.35 h -30.741 z"
         id="path56026" /></clipPath><clipPath
       clipPathUnits="userSpaceOnUse"
       id="clipPath56048"><path
         d="m 788.975,1209.64 h 16.176 v -14.74 h -16.176 z"
         id="path56046" /></clipPath><clipPath
       clipPathUnits="userSpaceOnUse"
       id="clipPath56120"><path
         d="m 1544,1465.96 h 32 v -22 h -32 z"
         id="path56118" /></clipPath><clipPath
       clipPathUnits="userSpaceOnUse"
       id="clipPath56136"><path
         d="M 1563.57,1479.96 H 1604 v -31.56 h -40.43 z"
         id="path56134" /></clipPath><clipPath
       clipPathUnits="userSpaceOnUse"
       id="clipPath56184"><path
         d="m 392,1336.96 h 32 v -22 h -32 z"
         id="path56182" /></clipPath><clipPath
       clipPathUnits="userSpaceOnUse"
       id="clipPath56200"><path
         d="M 411.57,1350.96 H 452 v -31.56 h -40.43 z"
         id="path56198" /></clipPath><clipPath
       clipPathUnits="userSpaceOnUse"
       id="clipPath56244"><path
         d="m 916.058,1085.89 h 12.928 v -11.93 h -12.928 z"
         id="path56242" /></clipPath><clipPath
       clipPathUnits="userSpaceOnUse"
       id="clipPath56260"><path
         d="m 913,1074.42 h 22 v -16.46 h -22 z"
         id="path56258" /></clipPath><clipPath
       clipPathUnits="userSpaceOnUse"
       id="clipPath56276"><path
         d="m 925.891,1085.96 h 33.106 v -23.97 h -33.106 z"
         id="path56274" /></clipPath><clipPath
       clipPathUnits="userSpaceOnUse"
       id="clipPath56316"><path
         d="m 1046.06,1087.89 h 12.93 v -11.93 h -12.93 z"
         id="path56314" /></clipPath><clipPath
       clipPathUnits="userSpaceOnUse"
       id="clipPath56332"><path
         d="m 1043,1076.42 h 22 v -16.46 h -22 z"
         id="path56330" /></clipPath><clipPath
       clipPathUnits="userSpaceOnUse"
       id="clipPath56348"><path
         d="M 1055.89,1087.96 H 1089 v -23.97 h -33.11 z"
         id="path56346" /></clipPath><clipPath
       clipPathUnits="userSpaceOnUse"
       id="clipPath56400"><path
         d="m 1169,946.418 h 22 V 929.96 h -22 z"
         id="path56398" /></clipPath><clipPath
       clipPathUnits="userSpaceOnUse"
       id="clipPath56416"><path
         d="M 1181.89,957.957 H 1215 v -23.97 h -33.11 z"
         id="path56414" /></clipPath><clipPath
       clipPathUnits="userSpaceOnUse"
       id="clipPath56436"><path
         d="m 1170.3,958.86 h 14.69 v -12.903 h -14.69 z"
         id="path56434" /></clipPath><clipPath
       clipPathUnits="userSpaceOnUse"
       id="clipPath56472"><path
         d="m 1298,948.418 h 22 V 931.96 h -22 z"
         id="path56470" /></clipPath><clipPath
       clipPathUnits="userSpaceOnUse"
       id="clipPath56488"><path
         d="M 1310.89,959.957 H 1344 v -23.97 h -33.11 z"
         id="path56486" /></clipPath><clipPath
       clipPathUnits="userSpaceOnUse"
       id="clipPath56508"><path
         d="m 1299.3,960.86 h 14.69 v -12.903 h -14.69 z"
         id="path56506" /></clipPath><clipPath
       clipPathUnits="userSpaceOnUse"
       id="clipPath56556"><path
         d="m 520,1465.96 h 32 v -22 h -32 z"
         id="path56554" /></clipPath><clipPath
       clipPathUnits="userSpaceOnUse"
       id="clipPath56572"><path
         d="M 539.57,1479.96 H 580 v -31.56 h -40.43 z"
         id="path56570" /></clipPath><clipPath
       clipPathUnits="userSpaceOnUse"
       id="clipPath56676"><path
         d="m 648,819.956 h 31.8 V 797.96 H 648 Z"
         id="path56674" /></clipPath><clipPath
       clipPathUnits="userSpaceOnUse"
       id="clipPath56692"><path
         d="M 669.124,833.951 H 708 v -31.539 h -38.876 z"
         id="path56690" /></clipPath><clipPath
       clipPathUnits="userSpaceOnUse"
       id="clipPath56732"><path
         d="m 401,948.418 h 22 V 931.96 h -22 z"
         id="path56730" /></clipPath><clipPath
       clipPathUnits="userSpaceOnUse"
       id="clipPath56748"><path
         d="m 413.891,959.957 h 33.106 v -23.97 h -33.106 z"
         id="path56746" /></clipPath><clipPath
       clipPathUnits="userSpaceOnUse"
       id="clipPath56768"><path
         d="m 402.303,960.86 h 14.684 v -12.903 h -14.684 z"
         id="path56766" /></clipPath><clipPath
       clipPathUnits="userSpaceOnUse"
       id="clipPath56828"><path
         d="m 529,948.418 h 22 V 931.96 h -22 z"
         id="path56826" /></clipPath><clipPath
       clipPathUnits="userSpaceOnUse"
       id="clipPath56844"><path
         d="m 541.891,959.957 h 33.106 v -23.97 h -33.106 z"
         id="path56842" /></clipPath><clipPath
       clipPathUnits="userSpaceOnUse"
       id="clipPath56864"><path
         d="m 530.303,960.86 h 14.684 v -12.903 h -14.684 z"
         id="path56862" /></clipPath><clipPath
       clipPathUnits="userSpaceOnUse"
       id="clipPath56972"><path
         d="m 1553,945.418 h 22 V 928.96 h -22 z"
         id="path56970" /></clipPath><clipPath
       clipPathUnits="userSpaceOnUse"
       id="clipPath56988"><path
         d="M 1565.89,956.957 H 1599 v -23.97 h -33.11 z"
         id="path56986" /></clipPath><clipPath
       clipPathUnits="userSpaceOnUse"
       id="clipPath57008"><path
         d="m 1554.3,957.86 h 14.69 v -12.903 h -14.69 z"
         id="path57006" /></clipPath><clipPath
       clipPathUnits="userSpaceOnUse"
       id="clipPath57080"><path
         d="m 1300.06,1085.89 h 12.93 v -11.93 h -12.93 z"
         id="path57078" /></clipPath><clipPath
       clipPathUnits="userSpaceOnUse"
       id="clipPath57096"><path
         d="m 1297,1074.42 h 22 v -16.46 h -22 z"
         id="path57094" /></clipPath><clipPath
       clipPathUnits="userSpaceOnUse"
       id="clipPath57112"><path
         d="M 1309.89,1085.96 H 1343 v -23.97 h -33.11 z"
         id="path57110" /></clipPath><clipPath
       clipPathUnits="userSpaceOnUse"
       id="clipPath57184"><path
         d="m 1427.06,1215.89 h 12.93 v -11.93 h -12.93 z"
         id="path57182" /></clipPath><clipPath
       clipPathUnits="userSpaceOnUse"
       id="clipPath57200"><path
         d="m 1424,1204.42 h 22 v -16.46 h -22 z"
         id="path57198" /></clipPath><clipPath
       clipPathUnits="userSpaceOnUse"
       id="clipPath57216"><path
         d="M 1436.89,1215.96 H 1470 v -23.97 h -33.11 z"
         id="path57214" /></clipPath><clipPath
       clipPathUnits="userSpaceOnUse"
       id="clipPath57280"><path
         d="m 1556.06,1215.89 h 12.93 v -11.93 h -12.93 z"
         id="path57278" /></clipPath><clipPath
       clipPathUnits="userSpaceOnUse"
       id="clipPath57296"><path
         d="m 1553,1204.42 h 22 v -16.46 h -22 z"
         id="path57294" /></clipPath><clipPath
       clipPathUnits="userSpaceOnUse"
       id="clipPath57312"><path
         d="M 1565.89,1215.96 H 1599 v -23.97 h -33.11 z"
         id="path57310" /></clipPath><clipPath
       clipPathUnits="userSpaceOnUse"
       id="clipPath57420"><path
         d="M 1558.01,1324.96 H 1581 v -16 h -22.99 z"
         id="path57418" /></clipPath><clipPath
       clipPathUnits="userSpaceOnUse"
       id="clipPath57436"><path
         d="M 1571.26,1336.96 H 1602 v -25.35 h -30.74 z"
         id="path57434" /></clipPath><clipPath
       clipPathUnits="userSpaceOnUse"
       id="clipPath57456"><path
         d="m 1556.97,1336.64 h 16.18 v -14.74 h -16.18 z"
         id="path57454" /></clipPath><clipPath
       clipPathUnits="userSpaceOnUse"
       id="clipPath57560"><path
         d="M 1431.01,1325.96 H 1454 v -16 h -22.99 z"
         id="path57558" /></clipPath><clipPath
       clipPathUnits="userSpaceOnUse"
       id="clipPath57576"><path
         d="M 1444.26,1337.96 H 1475 v -25.35 h -30.74 z"
         id="path57574" /></clipPath><clipPath
       clipPathUnits="userSpaceOnUse"
       id="clipPath57596"><path
         d="m 1429.97,1337.64 h 16.18 v -14.74 h -16.18 z"
         id="path57594" /></clipPath><clipPath
       clipPathUnits="userSpaceOnUse"
       id="clipPath57676"><path
         d="m 785.998,1716.12 h 35.356 v -30.16 h -35.356 z"
         id="path57674" /></clipPath><clipPath
       clipPathUnits="userSpaceOnUse"
       id="clipPath57692"><path
         d="m 805,1718.96 h 2 v -2 h -2 z"
         id="path57690" /></clipPath><clipPath
       clipPathUnits="userSpaceOnUse"
       id="clipPath57708"><path
         d="m 815,1712.96 h 2 v -2 h -2 z"
         id="path57706" /></clipPath><clipPath
       clipPathUnits="userSpaceOnUse"
       id="clipPath57724"><path
         d="m 797,1710.96 h 2 v -2 h -2 z"
         id="path57722" /></clipPath><clipPath
       clipPathUnits="userSpaceOnUse"
       id="clipPath57800"><path
         d="m 1462,1710.46 h 6 v -6 h -6 z"
         id="path57798" /></clipPath><clipPath
       clipPathUnits="userSpaceOnUse"
       id="clipPath57816"><path
         d="m 1464,1722.46 h 8.97 v -5.5 H 1464 Z"
         id="path57814" /></clipPath><clipPath
       clipPathUnits="userSpaceOnUse"
       id="clipPath57832"><path
         d="m 1420,1710.46 h 31 v -6 h -31 z"
         id="path57830" /></clipPath><clipPath
       clipPathUnits="userSpaceOnUse"
       id="clipPath57848"><path
         d="m 1446,1722.46 h 13.98 v -5.5 H 1446 Z"
         id="path57846" /></clipPath><clipPath
       clipPathUnits="userSpaceOnUse"
       id="clipPath57864"><path
         d="m 1436,1722.46 h 5.98 v -6 H 1436 Z"
         id="path57862" /></clipPath><clipPath
       clipPathUnits="userSpaceOnUse"
       id="clipPath57880"><path
         d="m 1443.99,1686.46 h 23.98 v -5.5 h -23.98 z"
         id="path57878" /></clipPath><clipPath
       clipPathUnits="userSpaceOnUse"
       id="clipPath57896"><path
         d="m 1416,1698.46 h 60 v -5.5 h -60 z"
         id="path57894" /></clipPath><clipPath
       clipPathUnits="userSpaceOnUse"
       id="clipPath57912"><path
         d="m 1428.99,1686.46 h 10.98 v -5.5 h -10.98 z"
         id="path57910" /></clipPath><clipPath
       clipPathUnits="userSpaceOnUse"
       id="clipPath57928"><path
         d="m 1418,1722.46 h 12 v -6 h -12 z"
         id="path57926" /></clipPath><clipPath
       clipPathUnits="userSpaceOnUse"
       id="clipPath57968"><path
         d="m 904,1574.96 h 26.967 v -20 H 904 Z"
         id="path57966" /></clipPath><clipPath
       clipPathUnits="userSpaceOnUse"
       id="clipPath57984"><path
         d="M 918.759,1588.96 H 958 v -30.35 h -39.241 z"
         id="path57982" /></clipPath><clipPath
       clipPathUnits="userSpaceOnUse"
       id="clipPath58004"><path
         d="m 929.057,1600.96 h 34.941 v -27.75 h -34.941 z"
         id="path58002" /></clipPath><clipPath
       clipPathUnits="userSpaceOnUse"
       id="clipPath58032"><path
         d="m 776,1337.96 h 32 v -22 h -32 z"
         id="path58030" /></clipPath><clipPath
       clipPathUnits="userSpaceOnUse"
       id="clipPath58048"><path
         d="M 795.57,1351.96 H 836 v -31.56 h -40.43 z"
         id="path58046" /></clipPath><clipPath
       clipPathUnits="userSpaceOnUse"
       id="clipPath58112"><path
         d="M 404.787,550.96 H 426 v -30 h -21.213 z"
         id="path58110" /></clipPath><clipPath
       clipPathUnits="userSpaceOnUse"
       id="clipPath58128"><path
         d="m 396,550.96 h 29 v -7 h -29 z"
         id="path58126" /></clipPath><clipPath
       clipPathUnits="userSpaceOnUse"
       id="clipPath58144"><path
         d="m 427,558.96 h 29 v -8 h -29 z"
         id="path58142" /></clipPath><clipPath
       clipPathUnits="userSpaceOnUse"
       id="clipPath58160"><path
         d="m 426,580.96 h 21.213 v -30 H 426 Z"
         id="path58158" /></clipPath><clipPath
       clipPathUnits="userSpaceOnUse"
       id="clipPath58228"><path
         d="m 652,557.962 h 32 V 535.96 h -32 z"
         id="path58226" /></clipPath><clipPath
       clipPathUnits="userSpaceOnUse"
       id="clipPath58244"><path
         d="M 671.57,571.96 H 712 v -31.562 h -40.43 z"
         id="path58242" /></clipPath><clipPath
       clipPathUnits="userSpaceOnUse"
       id="clipPath58276"><path
         d="m 524,557.962 h 32 V 535.96 h -32 z"
         id="path58274" /></clipPath><clipPath
       clipPathUnits="userSpaceOnUse"
       id="clipPath58292"><path
         d="M 543.57,571.96 H 584 v -31.562 h -40.43 z"
         id="path58290" /></clipPath><clipPath
       clipPathUnits="userSpaceOnUse"
       id="clipPath58348"><path
         d="M 1161.65,579.959 H 1217 v -52.038 h -55.35 z"
         id="path58346" /></clipPath><clipPath
       clipPathUnits="userSpaceOnUse"
       id="clipPath58368"><path
         d="m 1177.01,545.941 h 14 v -10 h -14 z"
         id="path58366" /></clipPath><clipPath
       clipPathUnits="userSpaceOnUse"
       id="clipPath58384"><path
         d="m 1179.01,557.941 h 16 v -15.998 h -16 z"
         id="path58382" /></clipPath><clipPath
       clipPathUnits="userSpaceOnUse"
       id="clipPath58412"><path
         d="M 1294.41,574.96 H 1339 v -41.334 h -44.59 z"
         id="path58410" /></clipPath><clipPath
       clipPathUnits="userSpaceOnUse"
       id="clipPath58432"><path
         d="m 1311,556.96 h 4 v -12 h -4 z"
         id="path58430" /></clipPath><clipPath
       clipPathUnits="userSpaceOnUse"
       id="clipPath58448"><path
         d="m 1309,549.431 h 7.95 V 541.96 H 1309 Z"
         id="path58446" /></clipPath><clipPath
       clipPathUnits="userSpaceOnUse"
       id="clipPath58476"><path
         d="M 1428.41,573.96 H 1473 v -41.334 h -44.59 z"
         id="path58474" /></clipPath><clipPath
       clipPathUnits="userSpaceOnUse"
       id="clipPath58496"><path
         d="m 1443,553.96 h 12 v -4 h -12 z"
         id="path58494" /></clipPath><clipPath
       clipPathUnits="userSpaceOnUse"
       id="clipPath58516"><path
         d="m 1443,549.96 h 12 v -4 h -12 z"
         id="path58514" /></clipPath><clipPath
       clipPathUnits="userSpaceOnUse"
       id="clipPath58532"><path
         d="m 1441,550.431 h 7.95 V 542.96 H 1441 Z"
         id="path58530" /></clipPath><clipPath
       clipPathUnits="userSpaceOnUse"
       id="clipPath58560"><path
         d="M 1556.41,573.96 H 1601 v -41.334 h -44.59 z"
         id="path58558" /></clipPath><clipPath
       clipPathUnits="userSpaceOnUse"
       id="clipPath58580"><path
         d="m 1571,552.431 h 5.87 V 540.96 H 1571 Z"
         id="path58578" /></clipPath><clipPath
       clipPathUnits="userSpaceOnUse"
       id="clipPath58596"><path
         d="m 1573,555.96 h 4 v -12 h -4 z"
         id="path58594" /></clipPath><clipPath
       clipPathUnits="userSpaceOnUse"
       id="clipPath58624"><path
         d="M 406.411,446.961 H 451 v -41.335 h -44.589 z"
         id="path58622" /></clipPath><clipPath
       clipPathUnits="userSpaceOnUse"
       id="clipPath58644"><path
         d="m 418,422.826 h 11.471 v -5.865 H 418 Z"
         id="path58642" /></clipPath><clipPath
       clipPathUnits="userSpaceOnUse"
       id="clipPath58660"><path
         d="m 421,422.961 h 12 v -4 h -12 z"
         id="path58658" /></clipPath><clipPath
       clipPathUnits="userSpaceOnUse"
       id="clipPath58688"><path
         d="m 541,417.204 h 26.514 V 392.962 H 541 Z"
         id="path58686" /></clipPath><clipPath
       clipPathUnits="userSpaceOnUse"
       id="clipPath58708"><path
         d="m 549,411.636 h 11.759 V 400.963 H 549 Z"
         id="path58706" /></clipPath><clipPath
       clipPathUnits="userSpaceOnUse"
       id="clipPath58724"><path
         d="m 554,448.96 h 6 v -28 h -6 z"
         id="path58722" /></clipPath><clipPath
       clipPathUnits="userSpaceOnUse"
       id="clipPath58740"><path
         d="m 555,414.96 h 10 v -10 h -10 z"
         id="path58738" /></clipPath><clipPath
       clipPathUnits="userSpaceOnUse"
       id="clipPath58776"><path
         d="m 1181,417.204 h 26.51 V 392.962 H 1181 Z"
         id="path58774" /></clipPath><clipPath
       clipPathUnits="userSpaceOnUse"
       id="clipPath58792"><path
         d="m 1189,411.636 h 11.76 V 400.963 H 1189 Z"
         id="path58790" /></clipPath><clipPath
       clipPathUnits="userSpaceOnUse"
       id="clipPath58808"><path
         d="m 1195,448.96 h 6 v -28 h -6 z"
         id="path58806" /></clipPath><clipPath
       clipPathUnits="userSpaceOnUse"
       id="clipPath58824"><path
         d="m 1195,414.96 h 10 v -10 h -10 z"
         id="path58822" /></clipPath><clipPath
       clipPathUnits="userSpaceOnUse"
       id="clipPath58852"><path
         d="m 1052,417.204 h 26.51 V 392.962 H 1052 Z"
         id="path58850" /></clipPath><clipPath
       clipPathUnits="userSpaceOnUse"
       id="clipPath58872"><path
         d="m 1060,411.636 h 11.76 V 400.963 H 1060 Z"
         id="path58870" /></clipPath><clipPath
       clipPathUnits="userSpaceOnUse"
       id="clipPath58888"><path
         d="m 1065,448.96 h 6 v -28 h -6 z"
         id="path58886" /></clipPath><clipPath
       clipPathUnits="userSpaceOnUse"
       id="clipPath58904"><path
         d="m 1066,414.96 h 10 v -10 h -10 z"
         id="path58902" /></clipPath><clipPath
       clipPathUnits="userSpaceOnUse"
       id="clipPath58932"><path
         d="m 669,417.204 h 26.514 V 392.962 H 669 Z"
         id="path58930" /></clipPath><clipPath
       clipPathUnits="userSpaceOnUse"
       id="clipPath58952"><path
         d="m 677,411.636 h 11.759 V 400.963 H 677 Z"
         id="path58950" /></clipPath><clipPath
       clipPathUnits="userSpaceOnUse"
       id="clipPath58968"><path
         d="m 682,448.96 h 6 v -28 h -6 z"
         id="path58966" /></clipPath><clipPath
       clipPathUnits="userSpaceOnUse"
       id="clipPath58984"><path
         d="m 683,414.96 h 10 v -10 h -10 z"
         id="path58982" /></clipPath><clipPath
       clipPathUnits="userSpaceOnUse"
       id="clipPath59016"><path
         d="m 797,417.204 h 26.514 V 392.962 H 797 Z"
         id="path59014" /></clipPath><clipPath
       clipPathUnits="userSpaceOnUse"
       id="clipPath59036"><path
         d="m 805,411.636 h 11.759 V 400.963 H 805 Z"
         id="path59034" /></clipPath><clipPath
       clipPathUnits="userSpaceOnUse"
       id="clipPath59052"><path
         d="m 810,448.96 h 6 v -28 h -6 z"
         id="path59050" /></clipPath><clipPath
       clipPathUnits="userSpaceOnUse"
       id="clipPath59068"><path
         d="m 811,414.96 h 10 v -10 h -10 z"
         id="path59066" /></clipPath><clipPath
       clipPathUnits="userSpaceOnUse"
       id="clipPath59100"><path
         d="m 925,417.204 h 26.514 V 392.962 H 925 Z"
         id="path59098" /></clipPath><clipPath
       clipPathUnits="userSpaceOnUse"
       id="clipPath59120"><path
         d="m 933,411.636 h 11.759 V 400.963 H 933 Z"
         id="path59118" /></clipPath><clipPath
       clipPathUnits="userSpaceOnUse"
       id="clipPath59136"><path
         d="m 938,448.96 h 6 v -28 h -6 z"
         id="path59134" /></clipPath><clipPath
       clipPathUnits="userSpaceOnUse"
       id="clipPath59152"><path
         d="m 939,414.96 h 10 v -10 h -10 z"
         id="path59150" /></clipPath><clipPath
       clipPathUnits="userSpaceOnUse"
       id="clipPath59188"><path
         d="m 1436,415.204 h 26.51 V 390.962 H 1436 Z"
         id="path59186" /></clipPath><clipPath
       clipPathUnits="userSpaceOnUse"
       id="clipPath59204"><path
         d="m 1444,409.636 h 11.76 V 398.963 H 1444 Z"
         id="path59202" /></clipPath><clipPath
       clipPathUnits="userSpaceOnUse"
       id="clipPath59220"><path
         d="m 1450,446.96 h 6 v -28 h -6 z"
         id="path59218" /></clipPath><clipPath
       clipPathUnits="userSpaceOnUse"
       id="clipPath59236"><path
         d="m 1450,412.96 h 10 v -10 h -10 z"
         id="path59234" /></clipPath><clipPath
       clipPathUnits="userSpaceOnUse"
       id="clipPath59268"><path
         d="m 1564,415.204 h 26.51 V 390.962 H 1564 Z"
         id="path59266" /></clipPath><clipPath
       clipPathUnits="userSpaceOnUse"
       id="clipPath59284"><path
         d="m 1572,409.636 h 11.76 V 398.963 H 1572 Z"
         id="path59282" /></clipPath><clipPath
       clipPathUnits="userSpaceOnUse"
       id="clipPath59300"><path
         d="m 1578,446.96 h 6 v -28 h -6 z"
         id="path59298" /></clipPath><clipPath
       clipPathUnits="userSpaceOnUse"
       id="clipPath59316"><path
         d="m 1578,412.96 h 10 v -10 h -10 z"
         id="path59314" /></clipPath><clipPath
       clipPathUnits="userSpaceOnUse"
       id="clipPath59348"><path
         d="m 1309,417.204 h 26.51 V 392.962 H 1309 Z"
         id="path59346" /></clipPath><clipPath
       clipPathUnits="userSpaceOnUse"
       id="clipPath59364"><path
         d="m 1317,411.636 h 11.76 V 400.963 H 1317 Z"
         id="path59362" /></clipPath><clipPath
       clipPathUnits="userSpaceOnUse"
       id="clipPath59380"><path
         d="m 1323,448.96 h 6 v -28 h -6 z"
         id="path59378" /></clipPath><clipPath
       clipPathUnits="userSpaceOnUse"
       id="clipPath59396"><path
         d="m 1323,414.96 h 10 v -10 h -10 z"
         id="path59394" /></clipPath><clipPath
       clipPathUnits="userSpaceOnUse"
       id="clipPath59424"><path
         d="M 799.57,571.96 H 840 v -31.562 h -40.43 z"
         id="path59422" /></clipPath><clipPath
       clipPathUnits="userSpaceOnUse"
       id="clipPath59440"><path
         d="m 780,557.962 h 19.698 V 535.96 H 780 Z"
         id="path59438" /></clipPath></defs><sodipodi:namedview
     pagecolor="#ffffff"
     bordercolor="#666666"
     borderopacity="1"
     objecttolerance="10"
     gridtolerance="10"
     guidetolerance="10"
     inkscape:pageopacity="0"
     inkscape:pageshadow="2"
     inkscape:window-width="1533"
     inkscape:window-height="845"
     id="namedview30"
     showgrid="false"
     inkscape:zoom="0.37464051"
     inkscape:cx="-31.157268"
     inkscape:cy="47.725798"
     inkscape:window-x="67"
     inkscape:window-y="27"
     inkscape:window-maximized="1"
     inkscape:current-layer="g36" /><g
     id="g36"
     inkscape:groupmode="layer"
     inkscape:label="Weather-Color-Icon-Set"
     transform="matrix(1.3333333,0,0,-1.3333333,-866.66931,1976.6137)"><g
       id="g51910"
       transform="translate(698,1471.4561)"><path
         d="m 0,0 c -0.168,0 -0.332,-0.019 -0.498,-0.025 -2.66,5.915 -8.592,10.04 -15.498,10.04 -8.533,0 -15.576,-6.292 -16.795,-14.488 -1.016,0.31 -2.092,0.479 -3.207,0.479 -6.076,0 -11.002,-4.926 -11.002,-11 0,-6.075 4.926,-11.002 11.002,-11.002 H -0.117 0 c 7.178,0 12.998,5.816 12.998,12.997 C 12.998,-5.82 7.178,0 0,0"
         style="fill:#cdf0f0;fill-opacity:1;fill-rule:nonzero;stroke:none"
         id="path51912" /></g><g
       id="g51914"
       transform="translate(0,1.5)"><g
         id="g51916" /><g
         id="g51928"><g
           clip-path="url(#clipPath51920)"
           opacity="0.100006"
           id="g51926"><g
             transform="translate(665,1461.96)"
             id="g51924"><path
               d="M 0,0 C 0,1.192 0.121,2.356 0.342,3.483 L 0.182,3.53 C -0.826,3.835 -1.893,4.002 -2.998,4.002 -9.074,4.002 -14,-0.924 -14,-6.998 -14,-13.073 -9.074,-18 -2.998,-18 H 18 C 8.059,-18 0,-9.941 0,0"
               style="fill:#000064;fill-opacity:1;fill-rule:nonzero;stroke:none"
               id="path51922" /></g></g></g></g><g
       id="g51930"
       transform="translate(0,1.5)"><g
         id="g51932" /><g
         id="g51944"><g
           clip-path="url(#clipPath51936)"
           opacity="0.5"
           id="g51942"><g
             transform="translate(711,1456.96)"
             id="g51940"><path
               d="m 0,0 c 0,7.18 -5.82,13 -13,13 -0.168,0 -0.331,-0.022 -0.498,-0.029 -2.243,4.987 -6.815,8.691 -12.333,9.733 -0.389,0.069 -0.778,0.136 -1.175,0.18 -0.085,0.01 -0.169,0.019 -0.254,0.028 C -27.833,22.967 -28.413,23 -29,23 c -1.084,0 -2.143,-0.104 -3.172,-0.288 -3.152,-0.597 -5.985,-2.072 -8.259,-4.151 1.435,0.281 2.914,0.439 4.431,0.439 6.727,0 12.769,-2.896 16.973,-7.5 -1.615,-0.851 -3.036,-2.021 -4.161,-3.441 C -21.569,8.657 -19.827,9 -18,9 -9.716,9 -3,2.284 -3,-6 -3,-6.875 -3.091,-7.728 -3.234,-8.562 -1.227,-6.273 0,-3.283 0,0"
               style="fill:#ffffff;fill-opacity:1;fill-rule:nonzero;stroke:none"
               id="path51938" /></g></g></g></g><g
       id="g51946"
       transform="translate(698,1471.4453)"><path
         d="m 0,0 c -0.168,0 -0.33,-0.02 -0.496,-0.025 -2.662,5.915 -8.594,10.04 -15.498,10.04 -8.535,0 -15.578,-6.293 -16.795,-14.488 -1.016,0.31 -2.092,0.479 -3.209,0.479 -6.074,0 -11,-4.926 -11,-11 0,-6.075 4.926,-11.002 11,-11.002 H -0.115 0 c 7.18,0 13,5.816 13,12.997 C 13,-5.821 7.18,0 0,0 Z"
         style="fill:none;stroke:#2e4369;stroke-width:2;stroke-linecap:round;stroke-linejoin:round;stroke-miterlimit:10;stroke-dasharray:none;stroke-opacity:1"
         id="path51948" /></g><g
       id="g51950"
       transform="translate(660.998,1437.46)"><path
         d="M 0,0 -6.404,-8.001"
         style="fill:none;stroke:#2e4369;stroke-width:2;stroke-linecap:round;stroke-linejoin:round;stroke-miterlimit:10;stroke-dasharray:none;stroke-opacity:1"
         id="path51952" /></g><g
       id="g51954"
       transform="translate(672.998,1437.46)"><path
         d="M 0,0 -12.809,-15.997"
         style="fill:none;stroke:#2e4369;stroke-width:2;stroke-linecap:round;stroke-linejoin:round;stroke-miterlimit:10;stroke-dasharray:none;stroke-opacity:1"
         id="path51956" /></g><g
       id="g51958"
       transform="translate(685,1437.46)"><path
         d="M 0,0 -6.404,-8.001"
         style="fill:none;stroke:#2e4369;stroke-width:2;stroke-linecap:round;stroke-linejoin:round;stroke-miterlimit:10;stroke-dasharray:none;stroke-opacity:1"
         id="path51960" /></g><g
       id="g51962"
       transform="translate(697,1437.46)"><path
         d="M 0,0 -12.809,-15.997"
         style="fill:none;stroke:#2e4369;stroke-width:2;stroke-linecap:round;stroke-linejoin:round;stroke-miterlimit:10;stroke-dasharray:none;stroke-opacity:1"
         id="path51964" /></g></g></svg>
